{
  "modules": [
    {
      "Title": "Telephone",
      "Image": "guest_relation_mainmenu",
      "Key": "guest_relation",
      "appState": "2"
    },

    {
      "Title": "Palace Ceremony",
      "Image": "inroom_dining_mainmenu",
      "Key": "in_room_dining",
      "appState": "2"
    },
    {
      "Title": "Service Request",
      "Image": "service_request_mainmenu",
      "Key": "service_request",
      "appState": "2"
    },
    {
      "Title": "FACILITIES AND SERVICES",
      "Image": "facilities_services_mainmenu",
      "Key": "facilities_and_services",
      "appState": "2"
    },
    {
      "Title": "RESTAURANT & BARS",
      "Image": "dining_mainmenu",
      "Key": "restaurantBar",
      "appState": "2"
    },
    {
      "Title": "Spa",
      "Image": "spa_mainmenu",
      "Key": "spa",
      "appState": "2"
    },

    {
      "Title": "PROMOTIONS",
      "Image": "offers_mainmenu",
      "Key": "offers",
      "appState": "2"
    },
    {
      "Title": "FEEDBACK",
      "Image": "feedback_menu",
      "Key":"feedback",
      "appState": "2"
    },
    {
      "Title": "PRESSREADER",
      "Image": "press_reader_mainmenu",
      "appState": "2",
      "Key": "pressreader"
    },

    {
      "Title": "WHATSAPP US",
      "Image": "whatsapp_menu",
      "Key": "whatsapp",
      "appState": "2"
    }


  ]
}