{
  "modules": [
    {
      "Title": "Telephone",
      "Image": "guest_relation_mainmenu",
      "Key": "guest_relation",
      "appState": "2"
    },
    {
      "Title": "Book a room",
      "Image": "book_room_mainmenu",
      "Key": "bookARoom",
      "appState": "0,1"
    },
    {
      "Title": "Palace Information",
      "Image": "palace_info_mainmenu",
      "Key": "palace_information",
      "appState": "0,1"
    },
    {
      "Title": "RESTAURANT & BARS",
      "Image": "dining_mainmenu",
      "Key": "restaurantBar",
      "appState": "0,1,2"
    },
    {
      "Title": "Spa",
      "Image": "spa_mainmenu",
      "Key": "spa",
      "appState": "0,1,2"
    },
    {
      "Title": "City Guide",
      "Image": "city_guide_mainmenu",
      "Key": "city_guide",
      "appState": "0,1"
    },
    {
      "Title": "PROMOTIONS",
      "Image": "offers_mainmenu",
      "Key": "offers",
      "appState": "0,1,2"
    },

    {
      "Title": "FACILITIES AND SERVICES",
      "Image": "facilities_services_mainmenu",
      "Key": "facilities_and_services",
      "appState": "0,1,2"
    },
    {
      "Title": "Social Media",
      "Image": "socialmedia_mainmenu",
      "Key": "socialMedia",
      "appState": "0,1"
    }

  ]
}